…
=== After mapping all qualifier/timing variables ===
# A tibble: 5 × 9
  oak_id raw_source patient_number DSTERM      DSDECOD DSCAT DSSTDTC DSDTC VISIT
   <int> <chr>      <chr>          <chr>       <chr>   <chr> <iso86> <iso> <chr>
1      1 ds_raw     701-1015       Randomized  RANDOM… DISP… 2014-0… 2014… Base…
2      2 ds_raw     701-1015       Protocol C… PROTOC… DISP… 2014-0… 2014… Week…
3      3 ds_raw     701-1015       <NA>        <NA>    <NA>  2014-0… 2014… Week…
4      4 ds_raw     701-1023       Randomized  RANDOM… DISP… 2012-0… 2012… Base…
5      5 ds_raw     701-1023       Adverse Ev… ADVERS… DISP… 2012-0… 2012… Week…

=== Final DS Domain Dataset ===
# A tibble: 850 × 11
   STUDYID      DOMAIN USUBJID DSSEQ DSTERM DSDECOD DSCAT VISIT DSDTC DSSTDTC   
   <chr>        <chr>  <chr>   <int> <chr>  <chr>   <chr> <chr> <iso> <date>    
 1 CDISCPILOT01 DS     01-701…     1 Proto… PROTOC… DISP… Week… 2014… 2014-07-02
 2 CDISCPILOT01 DS     01-701…     2 Rando… RANDOM… DISP… Base… 2014… 2014-01-02
 3 CDISCPILOT01 DS     01-701…     3 <NA>   <NA>    <NA>  Week… 2014… 2014-07-02
 4 CDISCPILOT01 DS     01-701…     1 Adver… ADVERS… DISP… Week… 2012… 2012-09-02
 5 CDISCPILOT01 DS     01-701…     2 Rando… RANDOM… DISP… Base… 2012… 2012-08-05
 6 CDISCPILOT01 DS     01-701…     3 <NA>   <NA>    <NA>  Week… 2012… 2012-09-02
 7 CDISCPILOT01 DS     01-701…     4 <NA>   <NA>    <NA>  Retr… 2013… 2013-02-18
 8 CDISCPILOT01 DS     01-701…     1 Proto… PROTOC… DISP… Week… 2014… 2014-01-14
 9 CDISCPILOT01 DS     01-701…     2 Rando… RANDOM… DISP… Base… 2013… 2013-07-19
10 CDISCPILOT01 DS     01-701…     3 <NA>   <NA>    <NA>  Week… 2014… 2014-01-14
# ℹ 840 more rows
# ℹ 1 more variable: DSSTDY <int>
…
